[gd_resource type="AnimatedTexture" load_steps=3 format=2]

[ext_resource path="res://assets/camp_1_2/camp_1_2_1.png" type="Texture" id=1]
[ext_resource path="res://assets/camp_1_2/camp_1_2_2.png" type="Texture" id=2]

[resource]
flags = 4
frames = 2
fps = 2.0
frame_0/texture = ExtResource( 1 )
frame_1/texture = ExtResource( 2 )
frame_1/delay_sec = 0.0
