[gd_scene load_steps=2 format=2]

[ext_resource path="res://levels/Level.tscn" type="PackedScene" id=1]

[node name="Level2" instance=ExtResource( 1 )]
level_number = 2
start_message = "Hey lookie there, maybe we can take a little pit stop to wipe the grime off my tracks… please...?"
tent_message = "I feel good as new. Please, now tell me what to do. That was a haiku."

[node name="TileMap" parent="." index="1"]
tile_data = PoolIntArray( -196611, 0, 0, -196610, 0, 0, -196609, 0, 0, -262144, 0, 0, -262143, 0, 0, -262142, 0, 0, -131076, 0, 0, -131075, 0, 0, -131074, 10, 0, -131073, 5, 0, -196608, 3, 0, -196607, 13, 0, -196606, 0, 0, -196605, 0, 0, -65540, 0, 0, -65539, 0, 0, -65538, 13, 0, -65537, 13, 0, -131072, 13, 0, -131071, 13, 0, -131070, 2, 0, -131069, 0, 0, -3, 0, 0, -2, 0, 0, -1, 0, 0, -65536, 5, 0, -65535, 4, 0, -65534, 13, 0, -65533, 0, 0, -65532, 0, 0, 65535, 0, 0, 0, 2, 0, 1, 13, 0, 2, 13, 0, 3, 3, 0, 4, 0, 0, 131071, 0, 0, 65536, 5, 0, 65537, 4, 0, 65538, 4, 0, 65539, 4, 0, 65540, 0, 0, 131072, 0, 0, 131073, 0, 0, 131074, 0, 0, 131075, 0, 0 )
