[gd_scene load_steps=5 format=2]

[ext_resource path="res://levels/objectplacers/ObjectPlacer.tscn" type="PackedScene" id=1]
[ext_resource path="res://levels/objectplacers/Conveyor.gd" type="Script" id=2]
[ext_resource path="res://assets/belt_v/belt_v_2.tres" type="Texture" id=3]
[ext_resource path="res://levels/objects/Conveyor2.tscn" type="PackedScene" id=4]

[node name="Conveyor2" instance=ExtResource( 1 )]
modulate = Color( 0.360784, 0.360784, 0.360784, 1 )
texture = ExtResource( 3 )
script = ExtResource( 2 )
object = ExtResource( 4 )
