[gd_scene load_steps=4 format=2]

[ext_resource path="res://icon.png" type="Texture" id=1]
[ext_resource path="res://levels/objectplacers/ObjectPlacer.gd" type="Script" id=2]
[ext_resource path="res://levels/objects/Object.tscn" type="PackedScene" id=3]

[node name="ObjectPlacer" type="TextureRect"]
margin_right = 40.0
margin_bottom = 40.0
texture = ExtResource( 1 )
script = ExtResource( 2 )
__meta__ = {
"_edit_use_anchors_": false
}
object = ExtResource( 3 )
