[gd_scene load_steps=3 format=2]

[ext_resource path="res://levels/objects/Object.tscn" type="PackedScene" id=1]
[ext_resource path="res://levels/objects/Conveyor.gd" type="Script" id=2]

[node name="Conveyor" groups=[
"conveyor",
] instance=ExtResource( 1 )]
script = ExtResource( 2 )
